Naive Bayes for Record Data
…
a = factor(df$label, levels = unique(df$label))
df$label = as.integer(a)

Dropping unnecessary columns:

Code

df = df[-c(1:3)]

Code

df$label = as.factor(df$label)
df

# A tibble: 26,941 × 19
   driverId raceId circuitId position points  grid  laps status constr…¹ weather
      <dbl>  <dbl>     <dbl>    <dbl>  <dbl> <dbl> <dbl>  <int>    <int>   <int>
 1      642    833         9        1      9     1    70      1        1       1
 2      786    833         9        2      6     2    70      1        1       1
 3      686    833         9        3      4     4    70      1        1       1
 4      704    833         9        4      3     6    68      2        2       1
 5      627    833         9        5      2     9    68      2        2       1
 6      619    833         9        6      0    13    67      2        3       1
 7      787    833         9        7      0    15    67      2        3       1
 8      741    833         9        8      0    14    65      2        2       1
 9      784    833         9        9      0    16    64      2        4       1
10      778    833         9       10      0    20    64      2        4       1
# … with 26,931 more rows, 9 more variables: stop <int>, age_on_race <dbl>,
#   cumulative_points <dbl>, cumulative_laps <dbl>, pole_driverId <dbl>,
#   pole_history <dbl>, win_driverId <dbl>, win_history <dbl>, label <fct>, and
#   abbreviated variable name ¹​constructorRef
…
